Plot examples from the DCWS launch • stylehaven
…
Lil bit of string formatting functions

This won’t show up when rendered, but I’ve set
fig.width=plot_params$financial_insecurity$w, fig.height=plot_params$financial_insecurity$h
for this chunk

financial_to_plot <- fin_insecurity |>
  filter(category %in% c("Connecticut", "Greater New Haven", "Age", "Race/Ethnicity")) |>
  mutate(category = forcats::fct_collapse(category, Total = c("Connecticut", "Greater New Haven"))) |>
  group_by(question) |>
  offset_lbls(value = value, frac = 0.02, thresh = 0.2, fun = percent100)
financial_to_plot
#> # A tibble: 27 × 9
#> # Groups:   question [3]
#>    question           category   group value is_small     off      y  just lbl  
#>    <chr>              <fct>      <fct> <dbl> <lgl>      <dbl>  <dbl> <dbl> <chr>
#>  1 food_insecurity    Total      Conn…  0.13 FALSE    -0.0076 0.122      1 13%  
#>  2 food_insecurity    Total      Grea…  0.13 FALSE    -0.0076 0.122      1 13%  
#>  3 food_insecurity    Age        Ages…  0.18 FALSE    -0.0076 0.172      1 18%  
#>  4 food_insecurity    Age        Ages…  0.2  FALSE    -0.0076 0.192      1 20%  
#>  5 food_insecurity    Age        Ages…  0.1  FALSE    -0.0076 0.0924     1 10%  
#>  6 food_insecurity    Age        Ages…  0.05 TRUE      0.0114 0.0614     0 5%   
#>  7 food_insecurity    Race/Ethn… White  0.09 FALSE    -0.0076 0.0824     1 9%   
#>  8 food_insecurity    Race/Ethn… Black  0.2  FALSE    -0.0076 0.192      1 20%  
#>  9 food_insecurity    Race/Ethn… Lati…  0.38 FALSE    -0.0076 0.372      1 38%  
#> 10 housing_insecurity Total      Conn…  0.08 FALSE    -0.0036 0.0764     1 8%   
#> # ℹ 17 more rows
…
